\relax 
\@writefile{toc}{\contentsline {section}{\numberline {1}Introduction}{1}}
\@writefile{toc}{\contentsline {section}{\numberline {2}Literature Review}{2}}
\@writefile{toc}{\contentsline {subsection}{\numberline {2.1}Laminated Plate theories}{4}}
\@writefile{lot}{\contentsline {table}{\numberline {1}{\ignorespaces Displacement field relation for Laminated Plates theories}}{5}}
\newlabel{tab:dispfield}{{1}{5}}
\@writefile{toc}{\contentsline {subsection}{\numberline {2.2}Classical Laminated Plate Theory-CLPT}{6}}
\@writefile{toc}{\contentsline {subsubsection}{\numberline {2.2.1}Displacement and strains formulation}{6}}
\@writefile{lof}{\contentsline {figure}{\numberline {1}{\ignorespaces Composite laminates}}{7}}
\newlabel{fig:3Dlaminate}{{1}{7}}
\@writefile{lof}{\contentsline {figure}{\numberline {2}{\ignorespaces Laminated Plate layers co-ordinates system}}{7}}
\newlabel{fig:sidelaminate}{{2}{7}}
\@writefile{lof}{\contentsline {figure}{\numberline {3}{\ignorespaces Classical Laminated plate theory deformed vs undeformed plate}}{8}}
\newlabel{fig:CLPT}{{3}{8}}
\newlabel{eq:CLPTstrains}{{{4}}{9}}
\newlabel{eq:matrixCLPT}{{5}{9}}
\@writefile{toc}{\contentsline {subsubsection}{\numberline {2.2.2}Constitutive Relations}{10}}
\newlabel{eq:local}{{6}{10}}
\@writefile{lof}{\contentsline {figure}{\numberline {4}{\ignorespaces Orthotropic lamina body diagram }}{10}}
\newlabel{fig:Fibers}{{4}{10}}
\newlabel{eq:global}{{13}{12}}
\@writefile{toc}{\contentsline {subsubsection}{\numberline {2.2.3}Laminated Structure Constitutive Equation}{12}}
\newlabel{eq:resultant}{{20}{12}}
\newlabel{eq:resultantm}{{21}{12}}
\newlabel{eq:resultant2}{{22}{12}}
\newlabel{eq:CLPTfinalF}{{23}{13}}
\newlabel{eq:CLPTfinalM}{{24}{13}}
\@writefile{toc}{\contentsline {subsection}{\numberline {2.3}First Order Shear Deformation Theory for Laminated Plates-FSDT}{14}}
\@writefile{lof}{\contentsline {figure}{\numberline {5}{\ignorespaces First Order Theory deformed vs undeformed plate}}{14}}
\newlabel{fig:FSDT}{{5}{14}}
\newlabel{eq:FSDTstrains}{{{29}}{15}}
\newlabel{eq:matrixFSDT}{{30}{15}}
\@writefile{toc}{\contentsline {subsubsection}{\numberline {2.3.1}Laminated Structure Constitutive Equation}{16}}
\newlabel{eq:FSDTterms}{{{33}}{16}}
\@writefile{toc}{\contentsline {subsection}{\numberline {2.4}Third Order Shear Deformation Theory for Laminated Plates-TSDT}{16}}
\@writefile{lof}{\contentsline {figure}{\numberline {6}{\ignorespaces Third Order Theory deformed vs undeformed plate}}{17}}
\newlabel{fig:TSDT}{{6}{17}}
\@writefile{toc}{\contentsline {subsubsection}{\numberline {2.4.1}Displacement and strains formulations}{17}}
\newlabel{eq:matrixTSDT}{{38}{18}}
\newlabel{eq:SmatrixTSDT}{{39}{18}}
\newlabel{eq:TSDTfull}{{40}{18}}
\newlabel{eq:TSDTs}{{41}{18}}
\@writefile{toc}{\contentsline {section}{\numberline {3}Methodology}{19}}
\@writefile{toc}{\contentsline {subsection}{\numberline {3.1}Composite Laminate Solver Development}{19}}
\@writefile{toc}{\contentsline {subsubsection}{\numberline {3.1.1}Constitutive relation}{20}}
\@writefile{loa}{\contentsline {algocf}{\numberline {1}{\ignorespaces Constitutive Relation}}{20}}
\newlabel{alg:Constitutive}{{1}{20}}
\@writefile{toc}{\contentsline {subsubsection}{\numberline {3.1.2}Main Solver}{21}}
\@writefile{loa}{\contentsline {algocf}{\numberline {2}{\ignorespaces Global Solver}}{21}}
\newlabel{alg:Solver}{{2}{21}}
\@writefile{toc}{\contentsline {subsubsection}{\numberline {3.1.3}Lamina global strains}{22}}
\@writefile{loa}{\contentsline {algocf}{\numberline {3}{\ignorespaces Lamina global strains}}{22}}
\newlabel{alg:laminastrains}{{3}{22}}
\@writefile{toc}{\contentsline {subsubsection}{\numberline {3.1.4}Lamina local strains}{22}}
\@writefile{toc}{\contentsline {subsubsection}{\numberline {3.1.5}Lamina local stresses}{23}}
\@writefile{toc}{\contentsline {subsection}{\numberline {3.2}Code Validation}{23}}
\@writefile{toc}{\contentsline {subsubsection}{\numberline {3.2.1}Example 7}{23}}
\@writefile{lot}{\contentsline {table}{\numberline {2}{\ignorespaces Local strains Example 7,Nettles}}{24}}
\newlabel{tab:pro_pro}{{2}{24}}
\@writefile{lof}{\contentsline {figure}{\numberline {7}{\ignorespaces Nettles Lamina strain distribution across laminate thickness}}{25}}
\newlabel{fig:CLPTNasa}{{7}{25}}
\@writefile{lof}{\contentsline {figure}{\numberline {8}{\ignorespaces CLPT code Lamina strain distribution across laminate thickness}}{25}}
\newlabel{fig:CLPTcode}{{8}{25}}
\@writefile{lof}{\contentsline {figure}{\numberline {9}{\ignorespaces FSDT code Lamina strain distribution across laminate thickness}}{25}}
\newlabel{fig:FSDTcode}{{9}{25}}
\@writefile{lof}{\contentsline {figure}{\numberline {10}{\ignorespaces TSDT code Lamina strain distribution across laminate thickness}}{26}}
\newlabel{fig:TSDTcode}{{10}{26}}
\@writefile{lof}{\contentsline {figure}{\numberline {11}{\ignorespaces  CLPT, FSDT and TSDT strains distribution Vs thickness }}{26}}
\newlabel{fig:comparecode}{{11}{26}}
\@writefile{toc}{\contentsline {subsection}{\numberline {3.3}Composite Riser}{27}}
\@writefile{toc}{\contentsline {subsubsection}{\numberline {3.3.1}Riser Data}{27}}
\@writefile{lof}{\contentsline {figure}{\numberline {12}{\ignorespaces CLPT method $\sigma _1$ distribution across laminate thickness}}{29}}
\newlabel{fig:CLPT_Paper}{{12}{29}}
\@writefile{lof}{\contentsline {figure}{\numberline {13}{\ignorespaces FSDT code Lamina $\sigma _1$ distribution across laminate thickness}}{29}}
\newlabel{fig:FSDT_Paper}{{13}{29}}
\@writefile{lof}{\contentsline {figure}{\numberline {14}{\ignorespaces TSDT code Lamina $\sigma _1$ distribution across laminate thickness}}{29}}
\newlabel{fig:TSDT_Paper}{{14}{29}}
\@writefile{lof}{\contentsline {figure}{\numberline {15}{\ignorespaces TSDT code Lamina $\sigma _1$ distribution across laminate thickness}}{30}}
\newlabel{fig:TSDT_Reg_Paper}{{15}{30}}
\@writefile{lof}{\contentsline {figure}{\numberline {16}{\ignorespaces  CLPT, FSDT and TSDT $\sigma _1$ distribution Vs thickness-No Reg. }}{30}}
\newlabel{fig:compare_Paper}{{16}{30}}
\@writefile{lof}{\contentsline {figure}{\numberline {17}{\ignorespaces  CLPT, FSDT and TSDT $\sigma _1$ distribution Vs thickness-Reg. }}{30}}
\newlabel{fig:compare_reg_Paper}{{17}{30}}
\@writefile{lof}{\contentsline {figure}{\numberline {18}{\ignorespaces CLPT method $\sigma _2$ distribution across laminate thickness}}{32}}
\newlabel{fig:CLPT_Paper2}{{18}{32}}
\@writefile{lof}{\contentsline {figure}{\numberline {19}{\ignorespaces FSDT code Lamina $\sigma _2$ distribution across laminate thickness}}{32}}
\newlabel{fig:FSDT_Paper2}{{19}{32}}
\@writefile{lof}{\contentsline {figure}{\numberline {20}{\ignorespaces TSDT code Lamina $\sigma _2$ distribution across laminate thickness}}{32}}
\newlabel{fig:TSDT_Paper2}{{20}{32}}
\@writefile{lof}{\contentsline {figure}{\numberline {21}{\ignorespaces TSDT code Lamina $\sigma _2$ distribution across laminate thickness}}{33}}
\newlabel{fig:TSDT_Reg_Paper2}{{21}{33}}
\@writefile{lof}{\contentsline {figure}{\numberline {22}{\ignorespaces  CLPT, FSDT and TSDT $\sigma _2$ distribution Vs thickness-No Reg. }}{33}}
\newlabel{fig:compare_Paper2}{{22}{33}}
\@writefile{lof}{\contentsline {figure}{\numberline {23}{\ignorespaces  CLPT, FSDT and TSDT $\sigma _2$ distribution Vs thickness-Reg. }}{33}}
\newlabel{fig:compare_reg_Paper2}{{23}{33}}
\@writefile{toc}{\contentsline {section}{\numberline {4}Discussion and Conclusion}{34}}
\@writefile{toc}{\contentsline {section}{\numberline {5}Recommendations and future work}{34}}
\citation{*}
\bibdata{researchproject}
\bibcite{Alieldin2011}{1}
\bibcite{Camanho2002}{2}
\bibcite{Ragheb2010}{3}
\bibcite{J.N.Reddy1997}{4}
\bibcite{Sobey16}{5}
\bibcite{Nettles1994}{6}
\bibcite{Reddy1986}{7}
\bibcite{Sun2013}{8}
\bibcite{Sun2014}{9}
\bibcite{Thai2013}{10}
\bibcite{Wall2000}{11}
\bibcite{Yu2010}{12}
\bibstyle{plain}
