This is BibTeX, Version 0.99d (TeX Live 2015)
Capacity: max_strings=35307, hash_size=35307, hash_prime=30011
The top-level auxiliary file: Composite Theories.aux
The style file: plain.bst
Database file #1: researchproject.bib
Warning--there's a number but no volume in Camanho2002
Warning--empty journal in Ragheb2010
Warning--there's a number but no volume in Sobey16
Warning--empty journal in Nettles1994
Warning--there's a number but no volume in Nettles1994
Warning--empty journal in Reddy1986
Warning--empty journal in Yu2010
You've used 12 entries,
            2118 wiz_defined-function locations,
            580 strings with 6038 characters,
and the built_in function-call counts, 3836 in all, are:
= -- 374
> -- 176
< -- 2
+ -- 70
- -- 58
* -- 271
:= -- 650
add.period$ -- 35
call.type$ -- 12
change.case$ -- 65
chr.to.int$ -- 0
cite$ -- 19
duplicate$ -- 144
empty$ -- 291
format.name$ -- 58
if$ -- 786
int.to.chr$ -- 0
int.to.str$ -- 12
missing$ -- 11
newline$ -- 62
num.names$ -- 24
pop$ -- 66
preamble$ -- 1
purify$ -- 53
quote$ -- 0
skip$ -- 104
stack$ -- 0
substring$ -- 230
swap$ -- 26
text.length$ -- 2
text.prefix$ -- 0
top$ -- 0
type$ -- 48
warning$ -- 7
while$ -- 39
width$ -- 14
write$ -- 126
(There were 7 warnings)
